Create Waiting List — create_waiting_list • NHSRwaitinglist
…
...
Container for the list

    Value

    A tibble of a random generated list of patients with addition_date,
removal_date, wait_length and rott status for each patient

    Examples

create_waiting_list(366, 50, 21, "2024-01-01", 10, 0.1)
#> # A tibble: 18,133 × 5
#>    pat_id addition_date removal_date wait_length rott 
#>     <int> <date>        <date>             <dbl> <lgl>
#>  1      1 2024-01-01    2024-03-07         66.3  FALSE
#>  2      2 2024-01-01    2024-01-13         12.3  FALSE
#>  3      3 2024-01-01    2024-02-12         42.2  FALSE
#>  4      4 2024-01-01    2024-02-16         45.8  FALSE
#>  5      5 2024-01-01    2024-01-02          1.12 FALSE
#>  6      6 2024-01-01    2024-01-05          3.53 FALSE
#>  7      7 2024-01-01    2024-01-06          5.34 FALSE
#>  8      8 2024-01-01    2024-02-06         36.4  FALSE
#>  9      9 2024-01-01    2024-01-17         16.3  FALSE
#> 10     10 2024-01-01    2024-01-25         24.4  FALSE
#> # ℹ 18,123 more rows
…
